{
  "package_name": "sklearn_wrap",
  "author": "JPL DARPA D3M TEAM",
  "version": "2020.6.24",
  "version_notes": {
    "0.1.0": "First pass at the wrapping sklearn in the interface",
    "0.1.1": "Upgrade to 1.26 core packages. \n Update the way params are generated",
    "2018.6.11": "Change versioning scheme to match core package",
    "2018.6.14": "Change output type to container.DataFrame per #57 vote",
    "2018.6.20": "Outputs to have metadata and linked to input metadata",
    "2018.6.22": "Sklearn classes to use semantic types on columns to set inputs and outputs. Additional primitives",
    "2018.6.26": "Make skelarn wrap code backward compatible by using use_semantic_types hyperparameter",
    "2018.6.27": "Bug fixes",
    "2018.6.28": "Fix bug causing sklearn wrap to ignore semantic types",
    "2018.6.29": "Remove auto wrapped SKLabelEncoder",
    "2018.7.03": "Implement return_result hyperparamter and fix output semantic_types",
    "2018.7.05": "Turn off all magic if use_semantic_types is set to false. See #87",
    "2018.7.11": "Add new vectorizer template to support count and tfidf vectorization on dataframes",
    "2019.1.21": "Prepare for new release of D3M core package",
    "2019.2.12": "Bug fixes",
    "2019.2.27": "Prepare for dry run",
    "2019.4.4": "Release with new core package v2019.4.4",
    "2019.6.7": "Updates now recorded in HISTORY.md",
    "2019.11.13": "Updates recorded in HISTORY.md: scikit-learn 0.21.3",
    "2020.5.26": "Updates recorded in HISTORY.md: scikit-learn 0.22.post1",
    "2020.6.10": "Updates recorded in HISTORY.md",
    "2020.6.24": "Updates recorded in HISTORY.md: minor updates"
  }
}
