{
  "is_class": true,
  "library": "sklearn",
  "compute_resources": {},
  "common_name": "Imputer",
  "id": "7517dfc6-9538-3da7-9e16-7046222f50c2",
  "category": "preprocessing.imputation",
  "source_code_unanalyzed": "https://github.com/scikit-learn/scikit-learn/blob/0.18.X/sklearn/preprocessing/imputation.py#L64",
  "parameters": [
    {
      "default": "\"NaN\"",
      "type": "integer",
      "optional": "true",
      "name": "missing_values",
      "description": "The placeholder for the missing values. All occurrences of `missing_values` will be imputed. For missing values encoded as np.nan, use the string value \"NaN\". "
    },
    {
      "default": "\"mean\"",
      "type": "string",
      "optional": "true",
      "name": "strategy",
      "description": "The imputation strategy.  - If \"mean\", then replace missing values using the mean along the axis. - If \"median\", then replace missing values using the median along the axis. - If \"most_frequent\", then replace missing using the most frequent value along the axis. "
    },
    {
      "default": "0",
      "type": "integer",
      "optional": "true",
      "name": "axis",
      "description": "The axis along which to impute.  - If `axis=0`, then impute along columns. - If `axis=1`, then impute along rows. "
    },
    {
      "default": "0",
      "type": "integer",
      "optional": "true",
      "name": "verbose",
      "description": "Controls the verbosity of the imputer. "
    }
  ],
  "tags": [
    "preprocessing",
    "imputation"
  ],
  "common_name_unanalyzed": "Imputer",
  "schema_version": 1,
  "languages": [
    "python2.7"
  ],
  "version": "0.18.1",
  "build": [
    {
      "type": "pip",
      "package": "scikit-learn"
    }
  ],
  "description": "'Imputation transformer for completing missing values.\n\nRead more in the :ref:`User Guide <imputation>`.\n",
  "methods_available": [
    {
      "id": "sklearn.preprocessing.imputation.Imputer.fit",
      "returns": {
        "type": "object",
        "name": "self",
        "description": "Returns self. '"
      },
      "description": "'Fit the imputer on X.\n",
      "parameters": [
        {
          "shape": "n_samples, n_features",
          "type": "array-like, sparse matrix",
          "name": "X",
          "description": "Input data, where ``n_samples`` is the number of samples and ``n_features`` is the number of features. "
        }
      ],
      "name": "fit"
    },
    {
      "id": "sklearn.preprocessing.imputation.Imputer.fit_transform",
      "returns": {
        "shape": "n_samples, n_features_new",
        "type": "numpy",
        "name": "X_new",
        "description": "Transformed array.  '"
      },
      "description": "'Fit to data, then transform it.\n\nFits transformer to X and y with optional parameters fit_params\nand returns a transformed version of X.\n",
      "parameters": [
        {
          "shape": "n_samples, n_features",
          "type": "numpy",
          "name": "X",
          "description": "Training set. "
        },
        {
          "shape": "n_samples",
          "type": "numpy",
          "name": "y",
          "description": "Target values. "
        }
      ],
      "name": "fit_transform"
    },
    {
      "id": "sklearn.preprocessing.imputation.Imputer.get_params",
      "returns": {
        "type": "mapping",
        "name": "params",
        "description": "Parameter names mapped to their values. '"
      },
      "description": "'Get parameters for this estimator.\n",
      "parameters": [
        {
          "type": "boolean",
          "optional": "true",
          "name": "deep",
          "description": "If True, will return the parameters for this estimator and contained subobjects that are estimators. "
        }
      ],
      "name": "get_params"
    },
    {
      "id": "sklearn.preprocessing.imputation.Imputer.set_params",
      "returns": {
        "name": "self",
        "description": "\""
      },
      "description": "\"Set the parameters of this estimator.\n\nThe method works on simple estimators as well as on nested objects\n(such as pipelines). The latter have parameters of the form\n``<component>__<parameter>`` so that it's possible to update each\ncomponent of a nested object.\n",
      "parameters": [],
      "name": "set_params"
    },
    {
      "id": "sklearn.preprocessing.imputation.Imputer.transform",
      "description": "'Impute all missing values in X.\n",
      "parameters": [
        {
          "shape": "n_samples, n_features",
          "type": "array-like, sparse matrix",
          "name": "X",
          "description": "The input data to complete. '"
        }
      ],
      "name": "transform"
    }
  ],
  "learning_type": [
    "supervised"
  ],
  "task_type": [
    "modeling"
  ],
  "source_code": "https://github.com/scikit-learn/scikit-learn/blob/0.18.X/sklearn/preprocessing/imputation.py#L64",
  "category_unanalyzed": "preprocessing.imputation",
  "name": "sklearn.preprocessing.imputation.Imputer",
  "team": "jpl",
  "attributes": [
    {
      "shape": "n_features,",
      "type": "array",
      "name": "statistics_",
      "description": "The imputation fill value for each feature if axis == 0. "
    }
  ]
}
