{
  "name": "sklearn.feature_selection.mutual_info_.mutual_info_classif",
  "id": "6b1beeb10034f9c2ff09c4d7cb4157b9",
  "common_name": "mutual_info_classif",
  "is_class": true,
  "tags": [
    "feature_selection",
    "mutual_info_"
  ],
  "version": "0.20.0",
  "source_code": "https://github.com/scikit-learn/scikit-learn/blob/0.20.0/sklearn/feature_selection/mutual_info_.py#L373",
  "parameters": [
    {
      "type": "array",
      "shape": "n_samples, n_features",
      "name": "X",
      "description": "Feature matrix. "
    },
    {
      "type": "array",
      "shape": "n_samples,",
      "name": "y",
      "description": "Target vector. "
    },
    {
      "type": "\\'auto\\', bool, array_like",
      "name": "discrete_features",
      "description": "If bool, then determines whether to consider all features discrete or continuous. If array, then it should be either a boolean mask with shape (n_features,) or array with indices of discrete features. If \\'auto\\', it is assigned to False for dense `X` and to True for sparse `X`. "
    },
    {
      "type": "int",
      "name": "n_neighbors",
      "description": "Number of neighbors to use for MI estimation for continuous variables, see [2]_ and [3]_. Higher values reduce variance of the estimation, but could introduce a bias. "
    },
    {
      "type": "bool",
      "name": "copy",
      "description": "Whether to make a copy of the given data. If set to False, the initial data will be overwritten. "
    },
    {
      "type": "int",
      "optional": "true",
      "name": "random_state",
      "description": "The seed of the pseudo random number generator for adding small noise to continuous variables in order to remove repeated values.  If int, random_state is the seed used by the random number generator; If RandomState instance, random_state is the random number generator; If None, the random number generator is the RandomState instance used by `np.random`.  Returns -------"
    },
    {
      "type": "ndarray",
      "shape": "n_features,",
      "name": "mi",
      "description": "Estimated mutual information between each feature and the target. "
    }
  ],
  "attributes": [],
  "description": "'Estimate mutual information for a discrete target variable.\n\nMutual information (MI) [1]_ between two random variables is a non-negative\nvalue, which measures the dependency between the variables. It is equal\nto zero if and only if two random variables are independent, and higher\nvalues mean higher dependency.\n\nThe function relies on nonparametric methods based on entropy estimation\nfrom k-nearest neighbors distances as described in [2]_ and [3]_. Both\nmethods are based on the idea originally proposed in [4]_.\n\nIt can be used for univariate features selection, read more in the\n:ref:`User Guide <univariate_feature_selection>`.\n",
  "returns": {
    "type": "ndarray",
    "shape": "n_features,",
    "name": "mi",
    "description": "Estimated mutual information between each feature and the target.  Notes ----- 1. The term \"discrete features\" is used instead of naming them \"categorical\", because it describes the essence more accurately. For example, pixel intensities of an image are discrete features (but hardly categorical) and you will get better results if mark them as such. Also note, that treating a continuous variable as discrete and vice versa will usually give incorrect results, so be attentive about that. 2. True mutual information can\\'t be negative. If its estimate turns out to be negative, it is replaced by zero.  References ---------- .. [1] `Mutual Information <https://en.wikipedia.org/wiki/Mutual_information>`_ on Wikipedia. .. [2] A. Kraskov, H. Stogbauer and P. Grassberger, \"Estimating mutual information\". Phys. Rev. E 69, 2004. .. [3] B. C. Ross \"Mutual Information between Discrete and Continuous Data Sets\". PLoS ONE 9(2), 2014. .. [4] L. F. Kozachenko, N. N. Leonenko, \"Sample Estimate of the Entropy of a Random Vector:, Probl. Peredachi Inf., 23:2 (1987), 9-16 '"
  },
  "methods_available": []
}