{
  "primitive_family": "DATA_PREPROCESSING",
  "test_template": "preprocessor.unsupervised.test.template",
  "test_data": "numeric",
  "template": "preprocessor.unsupervised.template",
  "pipeline_template": "transformer.pipeline.template",
  "add_semantic_types": [],
  "remove_semantic_types": [],
  "OneHotEncoder": {
    "primitive_family": "DATA_TRANSFORMATION",
    "class": "sklearn.preprocessing.OneHotEncoder",
    "algorithm_types": [
      "ENCODE_ONE_HOT"
    ],
    "accepted_structural_types": [
      "int",
      "float",
      "numpy.integer",
      "numpy.float64",
      "str"
    ],
    "accepted_semantic_types": [
      "https://metadata.datadrivendiscovery.org/types/CategoricalData",
      "https://metadata.datadrivendiscovery.org/types/Attribute"
    ],
    "test_template": "preprocessor.unsupervised.test.template",
    "template": "encoder.template",
    "test_data": "categorical",
    "custom_imports": [
      "from numpy import float as npfloat"
    ],
    "Hyperparams": [
      {
        "name": "sparse",
        "type": "UniformBool",
        "init_args": {
          "default": "True",
          "_structural_type": "bool",
          "semantic_types": [
            "sparse"
          ],
          "description": ""
        }
      },
      {
        "name": "handle_unknown",
        "type": "Enumeration",
        "init_args": {
          "values": [
            "error",
            "ignore"
          ],
          "default": "error",
          "_structural_type": "str",
          "semantic_types": [
            "handle_unknown"
          ],
          "description": ""
        }
      },
      {
        "name": "categories",
        "type": "Constant",
        "init_args": {
          "default": "auto",
          "_structural_type": "str",
          "semantic_types": [
            "categories"
          ],
          "description": ""
        }
      }
    ],
    "Params": [
      {
        "name": "active_features_",
        "type": "ndarray"
      },
      {
        "name": "feature_indices_",
        "type": "ndarray"
      },
      {
        "name": "n_values_",
        "type": "ndarray"
      },
      {
        "name": "_active_features_",
        "type": "ndarray"
      },
      {
        "name": "_categorical_features",
        "type": "Union[str, ndarray]"
      },
      {
        "name": "_categories",
        "type": "Sequence[Any]"
      },
      {
        "name": "_feature_indices_",
        "type": "ndarray"
      },
      {
        "name": "_legacy_mode",
        "type": "bool"
      },
      {
        "name": "_n_values_",
        "type": "ndarray"
      },
      {
        "name": "_n_values",
        "type": "Union[str, ndarray]"
      },
      {
        "name": "categories_",
        "type": "Sequence[Any]"
      }
    ]
  },
  "Imputer": {
    "comments": "Sklearn has replaced imputer with simpleimputer",
    "skip": true,
    "primitive_family": "DATA_CLEANING",
    "class": "sklearn.preprocessing.Imputer",
    "test_data": "nan",
    "template": "imputer.template",
    "test_template": "imputer.test.template",
    "algorithm_types": [
      "IMPUTATION"
    ],
    "Hyperparams": [
      {
        "name": "missing_values",
        "type": "Union",
        "init_args": {
          "default": "NaN",
          "semantic_types": [
            "missing_values"
          ],
          "description": ""
        },
        "hyperparams": [
          {
            "name": "int",
            "type": "Hyperparameter",
            "init_args": {
              "default": 0,
              "_structural_type": "int"
            }
          },
          {
            "name": "NaN",
            "type": "Constant",
            "init_args": {
              "default": "NaN",
              "_structural_type": "str"
            }
          }
        ]
      },
      {
        "name": "strategy",
        "type": "Enumeration",
        "init_args": {
          "default": "mean",
          "_structural_type": "str",
          "semantic_types": [
            "strategy"
          ],
          "values": [
            "median",
            "most_frequent",
            "mean"
          ],
          "description": ""
        }
      },
      {
        "name": "axis",
        "type": "Enumeration",
        "init_args": {
          "default": 0,
          "semantic_types": [
            "axis"
          ],
          "_structural_type": "int",
          "description": "",
          "values": [
            0,
            1
          ]
        }
      }
    ],
    "Params": []
  },
  "PCA": {
    "primitive_family": "FEATURE_EXTRACTION",
    "class": "sklearn.decomposition.pca",
    "algorithm_types": [
      "PRINCIPAL_COMPONENT_ANALYSIS"
    ],
    "custom_imports": [
      "import sys"
    ],
    "test_template": "preprocessor.unsupervised.test.template",
    "template": "preprocessor.unsupervised.template",
    "test_data": "numeric",
    "Hyperparams": [
      {
        "name": "n_components",
        "type": "Union",
        "init_args": {
          "default": "none",
          "semantic_types": [
            "n_components"
          ],
          "description": ""
        },
        "hyperparams": [
          {
            "name": "int",
            "type": "Bounded",
            "init_args": {
              "lower": 0,
              "upper": "None",
              "default": 0,
              "_structural_type": "int",
              "description": "Number of components to keep."
            }
          },
          {
            "name": "float",
            "type": "Uniform",
            "init_args": {
              "lower": 0,
              "upper": 1,
              "default": 0.5,
              "_structural_type": "float",
              "description": "Selects the number of components such that the amount of variance that needs to be explained is greater than the percentage specified by n_components."
            }
          },
          {
            "name": "mle",
            "type": "Constant",
            "init_args": {
              "default": "mle",
              "_structural_type": "str",
              "description": "If svd_solver == 'full', Minka's MLE is used to guess the dimension."
            }
          },
          {
            "name": "none",
            "type": "Constant",
            "init_args": {
              "default": "None",
              "_structural_type": "None",
              "description": "All components are kept, n_components == min(n_samples, n_features)."
            }
          }
        ]
      },
      {
        "name": "whiten",
        "type": "UniformBool",
        "init_args": {
          "default": "False",
          "_structural_type": "bool",
          "semantic_types": [
            "whiten"
          ],
          "description": ""
        }
      },
      {
        "name": "svd_solver",
        "type": "Choice",
        "hyperparams": {
          "tol": {
            "type": "Bounded",
            "name": "tol",
            "init_args": {
              "default": 0.0,
              "semantic_types": [
                "tol"
              ],
              "lower": 0.0,
              "upper": "None",
              "description": "",
              "_structural_type": "float"
            }
          },
          "iterated_power": {
            "name": "iterated_power",
            "type": "Union",
            "init_args": {
              "default": "auto",
              "semantic_types": [
                "iterated_power"
              ]
            },
            "hyperparams": [
              {
                "name": "int",
                "type": "Bounded",
                "init_args": {
                  "lower": 0,
                  "upper": "None",
                  "default": 0,
                  "_structural_type": "int"
                }
              },
              {
                "name": "auto",
                "type": "Constant",
                "init_args": {
                  "default": "auto",
                  "_structural_type": "str"
                }
              }
            ]
          }
        },
        "groups": {
          "auto": [],
          "full": [],
          "arpack": [
            "tol"
          ],
          "randomized": [
            "iterated_power"
          ]
        },
        "init_args": {
          "default": "auto"
        }
      }
    ],
    "Params": [
      {
        "name": "n_features_",
        "type": "int"
      },
      {
        "name": "n_samples_",
        "type": "int"
      },
      {
        "name": "singular_values_",
        "type": "ndarray"
      },
      {
        "name": "_fit_svd_solver",
        "type": "str"
      }
    ]
  },
  "SelectPercentile": {
    "class": "sklearn.feature_selection.SelectPercentile",
    "algorithm_types": [
      "STATISTICAL_MOMENT_ANALYSIS"
    ],
    "template": "feature_selection.template",
    "test_template": "feature.selection.test.template",
    "pipeline_template": "supervised.pipeline.template",
    "primitive_family": "FEATURE_SELECTION",
    "add_semantic_types": [],
    "remove_semantic_types": [],
    "custom_imports": [
      "from sklearn.feature_selection import f_classif, f_regression, chi2"
    ],
    "Hyperparams": [
      {
        "name": "score_func",
        "type": "Enumeration",
        "eval": true,
        "init_args": {
          "default": "f_classif",
          "values": [
            "f_classif",
            "f_regression",
            "chi2"
          ],
          "_structural_type": "str",
          "semantic_types": [
            "score_func"
          ],
          "description": ""
        }
      },
      {
        "name": "percentile",
        "type": "Bounded",
        "init_args": {
          "default": 10,
          "lower": 0,
          "upper": 100,
          "_structural_type": "int",
          "semantic_types": [
            "percentile"
          ],
          "description": ""
        }
      }
    ],
    "Params": []
  },
  "GenericUnivariateSelect": {
    "class": "sklearn.feature_selection.GenericUnivariateSelect",
    "algorithm_types": [
      "STATISTICAL_MOMENT_ANALYSIS"
    ],
    "test_template": "feature.selection.test.template",
    "template": "feature_selection.template",
    "test_data": "tests-data/datasets/iris_dataset_1",
    "pipeline_template": "supervised.pipeline.template",
    "primitive_family": "FEATURE_SELECTION",
    "add_semantic_types": [],
    "remove_semantic_types": [],
    "custom_imports": [
      "from sklearn.feature_selection import f_classif, f_regression, chi2"
    ],
    "Hyperparams": [
      {
        "name": "score_func",
        "type": "Enumeration",
        "eval": true,
        "init_args": {
          "default": "f_classif",
          "values": [
            "f_classif",
            "f_regression",
            "chi2"
          ],
          "_structural_type": "str",
          "semantic_types": [
            "score_func"
          ],
          "description": ""
        }
      },
      {
        "name": "mode",
        "type": "Enumeration",
        "init_args": {
          "default": "percentile",
          "values": [
            "percentile",
            "k_best",
            "fpr",
            "fdr",
            "fwe"
          ],
          "_structural_type": "str",
          "semantic_types": [
            "mode"
          ],
          "description": ""
        }
      },
      {
        "name": "param",
        "type": "Union",
        "init_args": {
          "default": "float",
          "semantic_types": [
            "percentile"
          ],
          "description": ""
        },
        "hyperparams": [
          {
            "name": "float",
            "type": "Hyperparameter",
            "init_args": {
              "default": 1e-05,
              "_structural_type": "float"
            }
          },
          {
            "name": "int",
            "type": "Hyperparameter",
            "init_args": {
              "default": 0,
              "_structural_type": "int"
            }
          }
        ]
      }
    ],
    "Params": [
      {
        "shape": "n_features,",
        "type": "ndarray",
        "name": "scores_",
        "description": "Scores of features. "
      },
      {
        "shape": "n_features,",
        "type": "ndarray",
        "name": "pvalues_",
        "description": "p-values of feature scores, None if `score_func` returned scores only.  See also -------- f_classif: ANOVA F-value between label/feature for classification tasks. mutual_info_classif: Mutual information for a discrete target. chi2: Chi-squared stats of non-negative features for classification tasks. f_regression: F-value between label/feature for regression tasks. mutual_info_regression: Mutual information for a continuous target. SelectPercentile: Select features based on percentile of the highest scores. SelectKBest: Select features based on the k highest scores. SelectFpr: Select features based on a false positive rate test. SelectFdr: Select features based on an estimated false discovery rate. SelectFwe: Select features based on family-wise error rate."
      }
    ]
  },
  "MinMaxScaler": {
    "class": "sklearn.preprocessing.MinMaxScaler",
    "algorithm_types": [
      "FEATURE_SCALING"
    ],
    "test_template": "preprocessor.unsupervised.test.template",
    "template": "preprocessor.unsupervised.template",
    "test_data": "numeric",
    "Hyperparams": [
      {
        "type": "SortedSet",
        "name": "feature_range",
        "init_args": {
          "elements": "hyperparams.Hyperparameter[int](0)",
          "default": "&esc(0, 1)",
          "min_size": 2,
          "max_size": 2,
          "_structural_type": "Tuple[int, int]",
          "semantic_types": [
            "feature_range"
          ],
          "description": ""
        }
      }
    ],
    "Params": [
      {
        "name": "n_samples_seen_",
        "type": "int"
      }
    ]
  },
  "StandardScaler": {
    "class": "sklearn.preprocessing.StandardScaler",
    "algorithm_types": [
      "FEATURE_SCALING"
    ],
    "test_template": "preprocessor.unsupervised.test.template",
    "template": "preprocessor.unsupervised.template",
    "test_data": "numeric",
    "Hyperparams": [
      {
        "name": "with_mean",
        "type": "Hyperparameter",
        "init_args": {
          "default": "True",
          "_structural_type": "bool",
          "semantic_types": [
            "with_mean"
          ],
          "description": ""
        }
      },
      {
        "name": "with_std",
        "type": "Hyperparameter",
        "init_args": {
          "default": "True",
          "_structural_type": "bool",
          "semantic_types": [
            "with_std"
          ],
          "description": ""
        }
      }
    ],
    "Params": [
      {
        "name": "n_samples_seen_",
        "type": "Union[int, numpy.integer]"
      }
    ]
  },
  "PolynomialFeatures": {
    "class": "sklearn.preprocessing.PolynomialFeatures",
    "algorithm_types": [
      "STATISTICAL_MOMENT_ANALYSIS"
    ],
    "test_template": "preprocessor.unsupervised.test.template",
    "test_data": "numeric",
    "template": "preprocessor.unsupervised.template",
    "Hyperparams": [
      {
        "name": "degree",
        "type": "Hyperparameter",
        "init_args": {
          "default": 2,
          "_structural_type": "int",
          "semantic_types": [
            "degree"
          ],
          "description": ""
        }
      },
      {
        "name": "include_bias",
        "type": "Hyperparameter",
        "init_args": {
          "default": "True",
          "_structural_type": "bool",
          "semantic_types": [
            "include_bias"
          ],
          "description": ""
        }
      }
    ],
    "Params": [
      {
        "name": "n_input_features_",
        "type": "int"
      },
      {
        "name": "n_output_features_",
        "type": "int"
      }
    ]
  },
  "RBFSampler": {
    "class": "sklearn.kernel_approximation.RBFSampler",
    "test_data": "numeric",
    "algorithm_types": [
      "KERNEL_METHOD"
    ],
    "Hyperparams": [
      {
        "name": "gamma",
        "type": "Hyperparameter",
        "init_args": {
          "default": 1,
          "_structural_type": "float",
          "semantic_types": [
            "gamma"
          ],
          "description": ""
        }
      },
      {
        "name": "n_components",
        "type": "Bounded",
        "init_args": {
          "lower": 0,
          "upper": "None",
          "default": 100,
          "_structural_type": "int",
          "semantic_types": [
            "n_components"
          ],
          "description": ""
        }
      },
      {
        "name": "random_state",
        "type": "Hyperparameter",
        "isConstructorArg": true,
        "init_args": {
          "default": "None",
          "_structural_type": "Union[int, None]",
          "semantic_types": [
            "random_state"
          ],
          "description": ""
        }
      }
    ],
    "Params": [
      {
        "name": "random_weights_",
        "type": "array"
      },
      {
        "name": "random_offset_",
        "type": "ndarray"
      }
    ]
  },
  "KernelPCA": {
    "primitive_family": "FEATURE_EXTRACTION",
    "class": "sklearn.decomposition.KernelPCA",
    "algorithm_types": [
      "PRINCIPAL_COMPONENT_ANALYSIS"
    ],
    "test_template": "preprocessor.unsupervised.test.template",
    "test_data": "numeric",
    "template": "preprocessor.unsupervised.template",
    "Hyperparams": [
      {
        "name": "n_components",
        "type": "Union",
        "init_args": {
          "default": "none",
          "semantic_types": [
            "n_components"
          ],
          "description": ""
        },
        "hyperparams": [
          {
            "name": "int",
            "type": "Bounded",
            "init_args": {
              "lower": 0,
              "upper": "None",
              "default": 100,
              "_structural_type": "int"
            }
          },
          {
            "name": "none",
            "type": "Constant",
            "init_args": {
              "default": "None",
              "_structural_type": "None",
              "description": "All non-zero components are kept."
            }
          }
        ]
      },
      {
        "name": "kernel",
        "type": "Choice",
        "hyperparams": {
          "degree": {
            "type": "Bounded",
            "name": "degree",
            "init_args": {
              "default": 3,
              "semantic_types": [
                "degree"
              ],
              "lower": 0,
              "upper": "None",
              "_structural_type": "int"
            }
          },
          "gamma": {
            "name": "gamma",
            "type": "Union",
            "init_args": {
              "default": "none",
              "semantic_types": [
                "gamma"
              ]
            },
            "hyperparams": [
              {
                "name": "float",
                "type": "Constant",
                "init_args": {
                  "default": 1.0,
                  "_structural_type": "float"
                }
              },
              {
                "name": "none",
                "type": "Constant",
                "init_args": {
                  "_structural_type": "None",
                  "default": "None",
                  "description": "Equals 1/n_features."
                }
              }
            ]
          },
          "coef0": {
            "type": "Constant",
            "name": "coef0",
            "init_args": {
              "default": 1,
              "semantic_types": [
                "coef0"
              ],
              "_structural_type": "float"
            }
          }
        },
        "groups": {
          "linear": [],
          "poly": [
            "degree",
            "gamma",
            "coef0"
          ],
          "rbf": [
            "gamma"
          ],
          "sigmoid": [
            "gamma",
            "coef0"
          ],
          "precomputed": []
        },
        "init_args": {
          "default": "rbf"
        }
      },
      {
        "name": "fit_inverse_transform",
        "type": "UniformBool",
        "init_args": {
          "default": "False",
          "_structural_type": "bool",
          "semantic_types": [
            "fit_inverse_transform"
          ],
          "description": ""
        }
      },
      {
        "name": "alpha",
        "type": "Constant",
        "init_args": {
          "default": 1,
          "_structural_type": "int",
          "semantic_types": [
            "alpha"
          ],
          "description": ""
        }
      },
      {
        "name": "eigen_solver",
        "type": "Enumeration",
        "init_args": {
          "default": "auto",
          "values": [
            "auto",
            "dense",
            "arpack"
          ],
          "_structural_type": "str",
          "semantic_types": [
            "eigen_solver"
          ],
          "description": ""
        }
      },
      {
        "name": "tol",
        "type": "Bounded",
        "init_args": {
          "default": 0,
          "lower": 0,
          "upper": "None",
          "_structural_type": "float",
          "semantic_types": [
            "tol for arpack"
          ],
          "description": ""
        }
      },
      {
        "name": "max_iter",
        "type": "Union",
        "init_args": {
          "default": "none",
          "_structural_type": "Union",
          "semantic_types": [
            "max_iter for arpack"
          ]
        },
        "hyperparams": [
          {
            "name": "int",
            "type": "Bounded",
            "init_args": {
              "lower": 0,
              "upper": "None",
              "default": 4,
              "_structural_type": "int"
            }
          },
          {
            "name": "none",
            "type": "Constant",
            "init_args": {
              "default": "None",
              "_structural_type": "None",
              "description": "Optimal value is chosen by arpack."
            }
          }
        ]
      },
      {
        "name": "remove_zero_eig",
        "type": "UniformBool",
        "init_args": {
          "default": "False",
          "_structural_type": "bool",
          "semantic_types": [
            "remove_zero_eig"
          ],
          "description": ""
        }
      },
      {
        "name": "random_state",
        "isConstructorArg": true,
        "type": "Hyperparameter",
        "init_args": {
          "default": "None",
          "_structural_type": "Union[int, RandomState, None]",
          "semantic_types": [
            "random_state"
          ],
          "description": ""
        }
      },
      {
        "name": "n_jobs",
        "type": "Union",
        "init_args": {
          "default": "limit"
        },
        "hyperparams": [
          {
            "name": "limit",
            "type": "Bounded",
            "init_args": {
              "default": 1,
              "lower": 1,
              "upper": "None",
              "_structural_type": "int"
            }
          },
          {
            "name": "all_cores",
            "type": "Constant",
            "init_args": {
              "_structural_type": "int",
              "default": -1
            }
          }
        ]
      }
    ],
    "Params": [
      {
        "name": "X_fit_",
        "type": "ndarray[float]",
        "shape": "(n_samples, n_features)"
      },
      {
        "name": "_centerer",
        "type": "sklearn.base.BaseEstimator"
      },
      {
        "name": "X_transformed_fit_",
        "type": "ndarray"
      }
    ],
    "flags": [
      "generate_new_metadata"
    ]
  },
  "FastICA": {
    "primitive_family": "DATA_TRANSFORMATION",
    "class": "sklearn.decomposition.FastICA",
    "algorithm_types": [
      "PRINCIPAL_COMPONENT_ANALYSIS"
    ],
    "test_template": "preprocessor.unsupervised.test.template",
    "test_data": "numeric_6",
    "template": "preprocessor.unsupervised.template",
    "Hyperparams": [
      {
        "name": "n_components",
        "type": "Union",
        "init_args": {
          "default": "none",
          "semantic_types": [
            "n_components"
          ],
          "description": ""
        },
        "hyperparams": [
          {
            "name": "int",
            "type": "Bounded",
            "init_args": {
              "lower": 0,
              "upper": "None",
              "default": 0,
              "_structural_type": "int"
            }
          },
          {
            "name": "none",
            "type": "Constant",
            "init_args": {
              "default": "None",
              "_structural_type": "None",
              "description": "All components are used."
            }
          }
        ]
      },
      {
        "name": "algorithm",
        "type": "Enumeration",
        "init_args": {
          "default": "parallel",
          "values": [
            "parallel",
            "deflation"
          ],
          "_structural_type": "str",
          "semantic_types": [
            "algorithm"
          ],
          "description": ""
        }
      },
      {
        "name": "whiten",
        "type": "Hyperparameter",
        "init_args": {
          "default": "True",
          "_structural_type": "bool",
          "semantic_types": [
            "whiten"
          ],
          "description": ""
        }
      },
      {
        "name": "fun",
        "type": "Choice",
        "parameters_placeholder": "fun_args",
        "hyperparams": {
          "alpha": {
            "name": "alpha",
            "type": "Hyperparameter",
            "init_args": {
              "default": 1,
              "_structural_type": "float",
              "semantic_types": [
                "alpha"
              ],
              "description": ""
            }
          }
        },
        "groups": {
          "logcosh": [
            "alpha"
          ],
          "exp": [],
          "cube": []
        },
        "init_args": {
          "default": "logcosh"
        }
      },
      {
        "name": "max_iter",
        "type": "Bounded",
        "init_args": {
          "default": 200,
          "lower": 0,
          "upper": "None",
          "_structural_type": "int",
          "semantic_types": [
            "max_iter"
          ],
          "description": ""
        }
      },
      {
        "name": "tol",
        "type": "Bounded",
        "init_args": {
          "default": 0.0001,
          "lower": 0,
          "upper": "None",
          "_structural_type": "float",
          "semantic_types": [
            "tol"
          ],
          "description": ""
        }
      },
      {
        "name": "w_init",
        "type": "Union",
        "init_args": {
          "default": "none",
          "semantic_types": [
            "w_init"
          ],
          "description": ""
        },
        "hyperparams": [
          {
            "name": "ndarray",
            "type": "Hyperparameter",
            "init_args": {
              "default": "&escnumpy.array([])",
              "_structural_type": "ndarray"
            }
          },
          {
            "name": "none",
            "type": "Constant",
            "init_args": {
              "default": "None",
              "_structural_type": "None"
            }
          }
        ]
      }
    ],
    "Params": [
      {
        "name": "n_iter_",
        "type": "int"
      },
      {
        "name": "mixing_",
        "type": "array"
      },
      {
        "name": "components_",
        "type": "array"
      },
      {
        "name": "mean_",
        "type": "array"
      },
      {
        "name": "whitening_",
        "type": "ndarray"
      }
    ],
    "flags": [
      "generate_new_metadata"
    ]
  },
  "TruncatedSVD": {
    "class": "sklearn.decomposition.TruncatedSVD",
    "algorithm_types": [
      "SINGULAR_VALUE_DECOMPOSITION"
    ],
    "template": "preprocessor.unsupervised.decomposition.template",
    "test_data": "numeric",
    "test_template": "preprocessor.unsupervised.decomposition.test.template",
    "Hyperparams": [
      {
        "name": "n_components",
        "type": "Bounded",
        "init_args": {
          "default": 2,
          "lower": 0,
          "upper": "None",
          "_structural_type": "int",
          "semantic_types": [
            "n_components"
          ],
          "description": ""
        }
      },
      {
        "name": "algorithm",
        "type": "Choice",
        "hyperparams": {
          "n_iter": {
            "type": "Bounded",
            "name": "n_iter",
            "init_args": {
              "default": 5,
              "semantic_types": [
                "n_iter"
              ],
              "lower": 0,
              "upper": "None",
              "description": "Number of iterations for randomized SVD solver. Not used in arpack",
              "_structural_type": "int"
            }
          },
          "tol": {
            "type": "Bounded",
            "name": "tol",
            "init_args": {
              "default": 0,
              "semantic_types": [
                "tol"
              ],
              "lower": 0,
              "upper": "None",
              "description": "Tolerance for ARPACK. 0 means machine precision. Ignored by randomized SVD solver.",
              "_structural_type": "float"
            }
          }
        },
        "groups": {
          "randomized": [
            "n_iter"
          ],
          "arpack": [
            "tol"
          ]
        },
        "init_args": {
          "default": "randomized"
        }
      },
      {
        "name": "random_state",
        "isConstructorArg": true,
        "type": "Hyperparameter",
        "init_args": {
          "default": "None",
          "_structural_type": "Union[int, RandomState, None]",
          "semantic_types": [
            "random_state"
          ],
          "description": ""
        }
      }
    ],
    "Params": []
  },
  "Nystroem": {
    "class": "sklearn.kernel_approximation.Nystroem",
    "algorithm_types": [
      "KERNEL_METHOD"
    ],
    "test_data": "numeric",
    "Hyperparams": [
      {
        "name": "kernel",
        "type": "Choice",
        "hyperparams": {
          "degree": {
            "name": "degree",
            "type": "Union",
            "init_args": {
              "default": "none",
              "semantic_types": [
                "degree"
              ]
            },
            "hyperparams": [
              {
                "name": "float",
                "type": "Constant",
                "init_args": {
                  "default": 1,
                  "_structural_type": "float"
                }
              },
              {
                "name": "none",
                "type": "Constant",
                "init_args": {
                  "_structural_type": "None",
                  "default": "None"
                }
              }
            ]
          },
          "gamma": {
            "name": "gamma",
            "type": "Union",
            "init_args": {
              "default": "none",
              "semantic_types": [
                "gamma"
              ]
            },
            "hyperparams": [
              {
                "name": "float",
                "type": "Constant",
                "init_args": {
                  "default": 0.1,
                  "_structural_type": "float"
                }
              },
              {
                "name": "none",
                "type": "Constant",
                "init_args": {
                  "_structural_type": "None",
                  "default": "None"
                }
              }
            ]
          },
          "coef0": {
            "name": "coef0",
            "type": "Union",
            "init_args": {
              "default": "none",
              "semantic_types": [
                "coef0"
              ]
            },
            "hyperparams": [
              {
                "name": "float",
                "type": "Constant",
                "init_args": {
                  "default": 1,
                  "_structural_type": "float"
                }
              },
              {
                "name": "none",
                "type": "Constant",
                "init_args": {
                  "_structural_type": "None",
                  "default": "None"
                }
              }
            ]
          }
        },
        "groups": {
          "rbf": [
            "gamma"
          ],
          "laplacian": [
            "gamma"
          ],
          "polynomial": [
            "gamma",
            "coef0",
            "degree"
          ],
          "exponential": [
            "gamma"
          ],
          "chi2": [
            "gamma"
          ],
          "sigmoid": [
            "gamma",
            "coef0"
          ],
          "cosine": [],
          "poly": [],
          "linear": [],
          "additive_chi2": []
        },
        "init_args": {
          "default": "rbf"
        }
      },
      {
        "name": "n_components",
        "type": "Bounded",
        "init_args": {
          "default": 100,
          "lower": 0,
          "upper": "None",
          "_structural_type": "int",
          "semantic_types": [
            "n_components"
          ],
          "description": ""
        }
      },
      {
        "name": "random_state",
        "type": "Hyperparameter",
        "isConstructorArg": true,
        "init_args": {
          "default": "None",
          "_structural_type": "Union[int, None]",
          "semantic_types": [
            "random_state"
          ],
          "description": ""
        }
      }
    ],
    "Params": [],
    "flags": [
      "generate_new_metadata"
    ]
  },
  "FeatureAgglomeration": {
    "class": "sklearn.cluster.FeatureAgglomeration",
    "test_template": "preprocessor.unsupervised.decomposition.test.template",
    "template": "preprocessor.unsupervised.decomposition.template",
    "test_data": "tests-data/datasets/iris_dataset_1",
    "algorithm_types": [
      "DATA_STREAM_CLUSTERING"
    ],
    "custom_imports": [
      "from numpy import mean as npmean"
    ],
    "Hyperparams": [
      {
        "name": "n_clusters",
        "type": "Bounded",
        "init_args": {
          "default": 2,
          "lower": 0,
          "upper": "None",
          "_structural_type": "int",
          "semantic_types": [
            "n_components"
          ],
          "description": ""
        }
      },
      {
        "name": "affinity",
        "type": "Enumeration",
        "init_args": {
          "default": "euclidean",
          "values": [
            "euclidean",
            "l1",
            "l2",
            "manhattan",
            "cosine",
            "precomputed"
          ],
          "_structural_type": "str",
          "semantic_types": [
            "affinity"
          ],
          "description": ""
        }
      },
      {
        "name": "compute_full_tree",
        "type": "Union",
        "init_args": {
          "default": "auto",
          "semantic_types": [
            "complete_full_tree"
          ]
        },
        "hyperparams": [
          {
            "name": "auto",
            "type": "Constant",
            "init_args": {
              "default": "auto",
              "_structural_type": "str"
            }
          },
          {
            "name": "bool",
            "type": "Hyperparameter",
            "init_args": {
              "default": "False",
              "_structural_type": "bool"
            }
          }
        ]
      },
      {
        "name": "linkage",
        "type": "Enumeration",
        "init_args": {
          "default": "ward",
          "values": [
            "ward",
            "complete",
            "average",
            "single"
          ],
          "_structural_type": "str",
          "semantic_types": [
            "linkage"
          ],
          "description": ""
        }
      }
    ],
    "Params": [
      {
        "type": "ndarray",
        "name": "labels_",
        "description": "cluster labels for each feature. "
      },
      {
        "shape": "n_nodes-1, 2",
        "type": "ndarray",
        "name": "children_",
        "description": "The children of each non-leaf node. Values less than `n_features` correspond to leaves of the tree which are the original samples. A node `i` greater than or equal to `n_features` is a non-leaf node and has children `children_[i - n_features]`. Alternatively at the i-th iteration, children[i][0] and children[i][1] are merged to form node `n_features + i`"
      }
    ]
  },
  "RandomTreesEmbedding": {
    "class_name": "sklearn.ensemble.RandomTreesEmbedding",
    "test_data": "numeric",
    "algorithm_types": [
      "RANDOM_FOREST"
    ],
    "Hyperparams": [
      {
        "name": "n_estimators",
        "type": "Bounded",
        "init_args": {
          "default": 10,
          "lower": 1,
          "upper": "None",
          "semantic_types": [
            "n_estimators"
          ],
          "_structural_type": "int"
        }
      },
      {
        "name": "max_depth",
        "type": "Union",
        "init_args": {
          "default": "int",
          "semantic_types": [
            "max_depth"
          ]
        },
        "hyperparams": [
          {
            "name": "int",
            "type": "Bounded",
            "init_args": {
              "_structural_type": "int",
              "lower": 0,
              "upper": "None",
              "default": 5,
              "description": ""
            }
          },
          {
            "name": "none",
            "type": "Constant",
            "init_args": {
              "default": "None",
              "_structural_type": "None"
            }
          }
        ]
      },
      {
        "name": "min_samples_split",
        "type": "Union",
        "init_args": {
          "default": "int",
          "semantic_types": [
            "min_samples_split"
          ]
        },
        "hyperparams": [
          {
            "name": "float",
            "type": "Bounded",
            "init_args": {
              "lower": 0,
              "upper": 1,
              "default": 1.0,
              "_structural_type": "float",
              "description": "It's a percentage and `ceil(min_samples_split * n_samples)` is the minimum number of samples for each split."
            }
          },
          {
            "name": "int",
            "type": "Bounded",
            "init_args": {
              "lower": 0,
              "upper": "None",
              "default": 2,
              "_structural_type": "int",
              "description": "Minimum number."
            }
          }
        ]
      },
      {
        "name": "min_samples_leaf",
        "type": "Union",
        "init_args": {
          "default": "absolute",
          "semantic_types": [
            "min_samples_split"
          ],
          "_structural_type": "Union"
        },
        "hyperparams": [
          {
            "name": "percent",
            "type": "Bounded",
            "init_args": {
              "lower": 0,
              "upper": 0.5,
              "default": 0.25,
              "_structural_type": "float",
              "description": "It's a percentage and `ceil(min_samples_leaf * n_samples)` is the minimum number of samples for each node."
            }
          },
          {
            "name": "absolute",
            "type": "Bounded",
            "init_args": {
              "lower": 1,
              "upper": "None",
              "default": 1,
              "_structural_type": "int",
              "description": "Minimum number."
            }
          }
        ]
      },
      {
        "name": "min_weight_fraction_leaf",
        "type": "Bounded",
        "init_args": {
          "default": 0,
          "lower": 0,
          "upper": 0.5,
          "semantic_types": [
            "min_weight_fraction_leaf"
          ],
          "_structural_type": "float"
        }
      },
      {
        "name": "max_leaf_nodes",
        "type": "Union",
        "init_args": {
          "default": "none",
          "semantic_types": [
            "max_leaf_nodes"
          ],
          "_structural_type": "Union"
        },
        "hyperparams": [
          {
            "name": "int",
            "type": "Bounded",
            "init_args": {
              "lower": 0,
              "upper": "None",
              "default": 10,
              "_structural_type": "int"
            }
          },
          {
            "name": "none",
            "type": "Constant",
            "init_args": {
              "default": "None",
              "_structural_type": "None"
            }
          }
        ]
      },
      {
        "name": "min_impurity_split",
        "type": "Union",
        "init_args": {
          "default": "none",
          "semantic_types": [
            "min_impurity_split"
          ],
          "_structural_type": "Union"
        },
        "hyperparams": [
          {
            "name": "float",
            "type": "Bounded",
            "init_args": {
              "lower": 0,
              "upper": "None",
              "default": 1,
              "_structural_type": "float"
            }
          },
          {
            "name": "none",
            "type": "Constant",
            "init_args": {
              "default": "None",
              "_structural_type": "None"
            }
          }
        ]
      },
      {
        "name": "min_impurity_decrease",
        "type": "Bounded",
        "init_args": {
          "default": 0,
          "lower": 0,
          "upper": "None",
          "semantic_types": [
            "min_impurity_decrease"
          ],
          "_structural_type": "float"
        }
      },
      {
        "name": "n_jobs",
        "type": "Union",
        "init_args": {
          "default": "limit"
        },
        "hyperparams": [
          {
            "name": "limit",
            "type": "Bounded",
            "init_args": {
              "default": 1,
              "lower": 1,
              "upper": "None",
              "_structural_type": "int"
            }
          },
          {
            "name": "all_cores",
            "type": "Constant",
            "init_args": {
              "_structural_type": "int",
              "default": -1
            }
          }
        ]
      },
      {
        "type": "Hyperparameter",
        "name": "warm_start",
        "init_args": {
          "default": "False",
          "semantic_types": [
            "warm_start"
          ],
          "_structural_type": "bool"
        }
      },
      {
        "name": "random_state",
        "type": "Hyperparameter",
        "isConstructorArg": true,
        "init_args": {
          "default": "None",
          "_structural_type": "Union[int, None]",
          "semantic_types": [
            "random_state"
          ],
          "description": ""
        }
      }
    ],
    "Params": [
      {
        "name": "estimators_",
        "type": "Sequence[sklearn.base.BaseEstimator]"
      },
      {
        "name": "one_hot_encoder_",
        "type": "object"
      }
    ]
  },
  "DictVectorizer": {
    "skip": true,
    "class": "sklearn.feature_extraction.dict_vectorizer.DictVectorizer",
    "template": "vectorizer.template",
    "test_template": "vectorizer.test.template",
    "primitive_family": "FEATURE_SELECTION",
    "algorithm_types": [
      "MINIMUM_REDUNDANCY_FEATURE_SELECTION"
    ],
    "iterate_columns": true,
    "accepted_structural_types": [
      "dict"
    ],
    "Hyperparams": [
    ],
    "test_data": "dict",
    "Params": [
      {
        "type": "Any",
        "name": "feature_names_"
      }
    ]
  },
  "CountVectorizer": {
    "class_name": "sklearn.feature_extraction.text.CountVectorizer",
    "test_template": "vectorizer.test.template",
    "template": "vectorizer.template",
    "algorithm_types": [
      "MINIMUM_REDUNDANCY_FEATURE_SELECTION"
    ],
    "iterate_columns": true,
    "accepted_structural_types": [
      "str"
    ],
    "accepted_semantic_types": [
      "http://schema.org/Text"
    ],
    "primitive_family": "DATA_PREPROCESSING",
    "Hyperparams": [
      {
        "name": "strip_accents",
        "type": "Union",
        "hyperparams": [
          {
            "type": "Enumeration",
            "name": "accents",
            "init_args": {
              "default": "ascii",
              "values": [
                "ascii",
                "unicode"
              ],
              "_structural_type": "str"
            }
          },
          {
            "name": "none",
            "type": "Constant",
            "init_args": {
              "_structural_type": "None",
              "default": "None"
            }
          }
        ],
        "init_args": {
          "default": "none"
        }
      },
      {
        "type": "Enumeration",
        "name": "analyzer",
        "init_args": {
          "default": "word",
          "values": [
            "word",
            "char",
            "char_wb"
          ],
          "semantic_types": [
            "analyzer"
          ],
          "_structural_type": "str"
        }
      },
      {
        "type": "SortedList",
        "name": "ngram_range",
        "init_args": {
          "elements": "hyperparams.Bounded[int](1, None, 1)",
          "default": "&esc(1, 1)",
          "semantic_types": [
            "ngram_range"
          ],
          "min_size": 2,
          "max_size": 2,
          "_structural_type": "tuple"
        }
      },
      {
        "type": "Union",
        "name": "stop_words",
        "hyperparams": [
          {
            "name": "string",
            "type": "Hyperparameter",
            "init_args": {
              "default": "english",
              "_structural_type": "str"
            }
          },
          {
            "name": "list",
            "type": "List",
            "init_args": {
              "_structural_type": "list",
              "elements": "hyperparams.Hyperparameter[str]('')",
              "default": "&esc[]"
            }
          },
          {
            "name": "none",
            "type": "Constant",
            "init_args": {
              "_structural_type": "None",
              "default": "None"
            }
          }
        ],
        "init_args": {
          "default": "none"
        }
      },
      {
        "type": "Hyperparameter",
        "name": "lowercase",
        "init_args": {
          "default": "True",
          "semantic_types": [
            "lowercase"
          ],
          "_structural_type": "bool"
        }
      },
      {
        "type": "Hyperparameter",
        "name": "token_pattern",
        "init_args": {
          "default": "(?u)\\\\b\\w\\w+\\\\b",
          "semantic_types": [
            "token_pattern"
          ],
          "_structural_type": "str"
        }
      },
      {
        "name": "max_df",
        "type": "Union",
        "hyperparams": [
          {
            "type": "Bounded",
            "name": "proportion",
            "init_args": {
              "default": 1.0,
              "lower": 0.0,
              "upper": 1.0,
              "_structural_type": "float"
            }
          },
          {
            "name": "absolute",
            "type": "Bounded",
            "init_args": {
              "_structural_type": "int",
              "default": 1,
              "lower": 0,
              "upper": "None"
            }
          }
        ],
        "init_args": {
          "default": "proportion"
        }
      },
      {
        "name": "min_df",
        "type": "Union",
        "hyperparams": [
          {
            "type": "Bounded",
            "name": "proportion",
            "init_args": {
              "default": 1.0,
              "lower": 0.0,
              "upper": 1.0,
              "_structural_type": "float"
            }
          },
          {
            "name": "absolute",
            "type": "Bounded",
            "init_args": {
              "_structural_type": "int",
              "default": 1,
              "lower": 0,
              "upper": "None"
            }
          }
        ],
        "init_args": {
          "default": "absolute"
        }
      },
      {
        "type": "Union",
        "name": "max_features",
        "hyperparams": [
          {
            "name": "absolute",
            "type": "Bounded",
            "init_args": {
              "_structural_type": "int",
              "default": 1,
              "lower": 0,
              "upper": "None"
            }
          },
          {
            "name": "none",
            "type": "Constant",
            "init_args": {
              "default": "None",
              "_structural_type": "None"
            }
          }
        ],
        "init_args": {
          "default": "none"
        }
      },
      {
        "type": "Hyperparameter",
        "name": "binary",
        "init_args": {
          "default": "False",
          "semantic_types": [
            "binary"
          ],
          "_structural_type": "bool"
        }
      }
    ],
    "Params": [
      {
        "name": "fixed_vocabulary_",
        "type": "bool"
      },
      {
        "name": "_stop_words_id",
        "type": "int"
      }
    ],
    "test_data": "texts"
  },
  "TfidfVectorizer": {
    "class_name": "sklearn.feature_extraction.text.TfidfVectorizer",
    "test_template": "vectorizer.test.template",
    "template": "vectorizer.template",
    "algorithm_types": [
      "MINIMUM_REDUNDANCY_FEATURE_SELECTION"
    ],
    "primitive_family": "DATA_PREPROCESSING",
    "iterate_columns": true,
    "accepted_structural_types": [
      "str"
    ],
    "accepted_semantic_types": [
      "http://schema.org/Text"
    ],
    "Hyperparams": [
      {
        "name": "strip_accents",
        "type": "Union",
        "hyperparams": [
          {
            "type": "Enumeration",
            "name": "accents",
            "init_args": {
              "default": "ascii",
              "values": [
                "ascii",
                "unicode"
              ],
              "_structural_type": "str"
            }
          },
          {
            "name": "none",
            "type": "Constant",
            "init_args": {
              "_structural_type": "None",
              "default": "None"
            }
          }
        ],
        "init_args": {
          "default": "none"
        }
      },
      {
        "type": "Enumeration",
        "name": "analyzer",
        "init_args": {
          "default": "word",
          "values": [
            "word",
            "char",
            "char_wb"
          ],
          "semantic_types": [
            "analyzer"
          ],
          "_structural_type": "str"
        }
      },
      {
        "type": "SortedList",
        "name": "ngram_range",
        "init_args": {
          "elements": "hyperparams.Bounded[int](1, None, 1)",
          "default": "&esc(1, 1)",
          "semantic_types": [
            "ngram_range"
          ],
          "min_size": 2,
          "max_size": 2,
          "_structural_type": "tuple"
        }
      },
      {
        "type": "Union",
        "name": "stop_words",
        "hyperparams": [
          {
            "name": "string",
            "type": "Hyperparameter",
            "init_args": {
              "default": "english",
              "_structural_type": "str"
            }
          },
          {
            "name": "list",
            "type": "List",
            "init_args": {
              "_structural_type": "list",
              "elements": "hyperparams.Hyperparameter[str]('')",
              "default": "&esc[]"
            }
          },
          {
            "name": "none",
            "type": "Constant",
            "init_args": {
              "_structural_type": "None",
              "default": "None"
            }
          }
        ],
        "init_args": {
          "default": "none"
        }
      },
      {
        "type": "Hyperparameter",
        "name": "lowercase",
        "init_args": {
          "default": "True",
          "semantic_types": [
            "lowercase"
          ],
          "_structural_type": "bool"
        }
      },
      {
        "type": "Hyperparameter",
        "name": "token_pattern",
        "init_args": {
          "default": "(?u)\\\\b\\w\\w+\\\\b",
          "semantic_types": [
            "token_pattern"
          ],
          "_structural_type": "str"
        }
      },
      {
        "name": "max_df",
        "type": "Union",
        "hyperparams": [
          {
            "type": "Bounded",
            "name": "proportion",
            "init_args": {
              "default": 1.0,
              "lower": 0.0,
              "upper": 1.0,
              "_structural_type": "float"
            }
          },
          {
            "name": "absolute",
            "type": "Bounded",
            "init_args": {
              "_structural_type": "int",
              "default": 1,
              "lower": 0,
              "upper": "None"
            }
          }
        ],
        "init_args": {
          "default": "proportion"
        }
      },
      {
        "name": "min_df",
        "type": "Union",
        "hyperparams": [
          {
            "type": "Bounded",
            "name": "proportion",
            "init_args": {
              "default": 1.0,
              "lower": 0.0,
              "upper": 1.0,
              "_structural_type": "float"
            }
          },
          {
            "name": "absolute",
            "type": "Bounded",
            "init_args": {
              "_structural_type": "int",
              "default": 1,
              "lower": 0,
              "upper": "None"
            }
          }
        ],
        "init_args": {
          "default": "absolute"
        }
      },
      {
        "type": "Union",
        "name": "max_features",
        "hyperparams": [
          {
            "name": "absolute",
            "type": "Bounded",
            "init_args": {
              "_structural_type": "int",
              "default": 1,
              "lower": 0,
              "upper": "None"
            }
          },
          {
            "name": "none",
            "type": "Constant",
            "init_args": {
              "default": "None",
              "_structural_type": "None"
            }
          }
        ],
        "init_args": {
          "default": "none"
        }
      },
      {
        "type": "Hyperparameter",
        "name": "binary",
        "init_args": {
          "default": "False",
          "semantic_types": [
            "binary"
          ],
          "_structural_type": "bool"
        }
      },
      {
        "type": "Union",
        "name": "norm",
        "hyperparams": [
          {
            "name": "str",
            "type": "Enumeration",
            "init_args": {
              "default": "l2",
              "values": [
                "l1",
                "l2"
              ],
              "_structural_type": "str"
            }
          },
          {
            "name": "none",
            "type": "Constant",
            "init_args": {
              "default": "None",
              "_structural_type": "None"
            }
          }
        ],
        "init_args": {
          "default": "none",
          "semantic_types": [
            "norm"
          ],
          "_structural_type": "Union"
        }
      },
      {
        "type": "Hyperparameter",
        "name": "use_idf",
        "init_args": {
          "default": "True",
          "semantic_types": [
            "use_idf"
          ],
          "_structural_type": "bool"
        }
      },
      {
        "type": "Hyperparameter",
        "name": "smooth_idf",
        "init_args": {
          "default": "True",
          "semantic_types": [
            "smooth_idf"
          ],
          "_structural_type": "bool"
        }
      },
      {
        "type": "Hyperparameter",
        "name": "sublinear_tf",
        "init_args": {
          "default": "False",
          "semantic_types": [
            "sublinear_tf"
          ],
          "_structural_type": "bool"
        }
      }
    ],
    "Params": [
      {
        "name": "_tfidf",
        "type": "object"
      },
      {
        "name": "fixed_vocabulary_",
        "type": "bool"
      },
      {
        "name": "_stop_words_id",
        "type": "int"
      }
    ],
    "test_data": "texts"
  },
  "Normalizer": {
    "class_name": "sklearn.preprocessing.data.Normalizer",
    "algorithm_types": [
      "DATA_NORMALIZATION"
    ],
    "test_template": "preprocessor.unsupervised.test.template",
    "template": "preprocessor.unsupervised.template",
    "test_data": "numeric",
    "primitive_family": "DATA_PREPROCESSING",
    "Hyperparams": [
      {
        "type": "Enumeration",
        "name": "norm",
        "init_args": {
          "default": "l2",
          "values": [
            "l1",
            "l2",
            "max"
          ],
          "semantic_types": [
            "norm"
          ],
          "_structural_type": "str"
        }
      }
    ]
  },
  "RobustScaler": {
    "class_name": "sklearn.preprocessing.data.RobustScaler",
    "test_data": "numeric",
    "algorithm_types": [
      "FEATURE_SCALING"
    ],
    "primitive_family": "DATA_PREPROCESSING",
    "Hyperparams": [
      {
        "type": "Hyperparameter",
        "name": "with_centering",
        "init_args": {
          "default": "True",
          "semantic_types": [
            "with_centering"
          ],
          "_structural_type": "bool"
        }
      },
      {
        "type": "Hyperparameter",
        "name": "with_scaling",
        "init_args": {
          "default": "True",
          "semantic_types": [
            "with_scaling"
          ],
          "_structural_type": "bool"
        }
      },
      {
        "type": "SortedSet",
        "name": "quantile_range",
        "init_args": {
          "elements": "hyperparams.Uniform(0.0, 100.0, 50.0, lower_inclusive=False, upper_inclusive=False)",
          "default": "&esc(25.0, 75.0)",
          "min_size": 2,
          "max_size": 2,
          "semantic_types": [
            "quantile_range"
          ],
          "_structural_type": "tuple"
        }
      }
    ]
  },
  "VarianceThreshold": {
    "class_name": "sklearn.feature_selection.variance_threshold.VarianceThreshold",
    "algorithm_types": [
      "FEATURE_SCALING"
    ],
    "primitive_family": "FEATURE_SELECTION",
    "add_semantic_types": [],
    "remove_semantic_types": [],
    "test_template": "feature.selection.test.template",
    "template": "feature_selection.template",
    "pipeline_template": "supervised.pipeline.template",
    "test_data": "tests-data/datasets/iris_dataset_1",
    "Hyperparams": [
      {
        "type": "Bounded",
        "name": "threshold",
        "init_args": {
          "default": 0.0,
          "lower": 0,
          "upper": "None",
          "semantic_types": [
            "threshold"
          ],
          "_structural_type": "float"
        }
      }
    ]
  },
  "MaxAbsScaler": {
    "class_name": "sklearn.preprocessing.data.MaxAbsScaler",
    "test_data": "numeric",
    "algorithm_types": [
      "FEATURE_SCALING"
    ],
    "primitive_family": "DATA_PREPROCESSING",
    "Hyperparams": []
  },
  "RFE": {
    "skip": true,
    "class_name": "sklearn.feature_selection.rfe.RFE",
    "algorithm_types": [
      "FEATURE_SCALING"
    ],
    "test_template": "supervised.test.template",
    "template": "preprocessor.supervised.template",
    "pipeline_template": "supervised.pipeline.template",
    "primitive_family": "DATA_PREPROCESSING",
    "custom_imports": [
      "from sklearn.svm import SVC"
    ],
    "Hyperparams": [
      {
        "type": "Hyperparameter",
        "isConstructorArg": true,
        "name": "estimator",
        "init_args": {
          "default": "&escSVC(kernel='linear', C=1)",
          "semantic_types": [
            "estimator"
          ],
          "_structural_type": "object",
          "description": "A supervised learning estimator with a fit method that provides information about feature importance either through a coef_ attribute or through a feature_importances_ attribute."
        }
      },
      {
        "type": "Union",
        "name": "n_features_to_select",
        "hyperparams": [
          {
            "type": "Bounded",
            "name": "int",
            "init_args": {
              "default": 1,
              "_structural_type": "int",
              "lower": 0,
              "upper": "None"
            }
          },
          {
            "type": "Constant",
            "name": "none",
            "init_args": {
              "default": "None",
              "_structural_type": "None"
            }
          }
        ],
        "init_args": {
          "default": "none",
          "semantic_types": [
            "n_features_to_select"
          ],
          "_structural_type": "Union",
          "description": "The number of features to select. If None, half of the features are selected."
        }
      },
      {
        "type": "Union",
        "name": "step",
        "hyperparams": [
          {
            "type": "Bounded",
            "name": "int",
            "init_args": {
              "default": 1,
              "_structural_type": "int",
              "lower": 1,
              "upper": "None"
            }
          },
          {
            "type": "Bounded",
            "name": "float",
            "init_args": {
              "default": 0.0,
              "_structural_type": "float",
              "lower": 0.0,
              "upper": 1.0
            }
          },
          {
            "type": "Constant",
            "name": "none",
            "init_args": {
              "default": "None",
              "_structural_type": "None"
            }
          }
        ],
        "init_args": {
          "default": "int",
          "semantic_types": [
            "step"
          ],
          "_structural_type": "Union",
          "description": "If greater than or equal to 1, then step corresponds to the (integer) number of features to remove at each iteration. If within (0.0, 1.0), then step corresponds to the percentage (rounded down) of features to remove at each iteration."
        }
      }
    ],
    "Params": [
      {
        "name": "n_features_",
        "type": "numpy.int64"
      }
    ]
  },
  "SelectFwe": {
    "class_name": "sklearn.feature_selection.univariate_selection.SelectFwe",
    "algorithm_types": [
      "FEATURE_SCALING"
    ],
    "test_template": "feature.selection.test.template",
    "template": "feature_selection.template",
    "pipeline_template": "supervised.pipeline.template",
    "primitive_family": "FEATURE_SELECTION",
    "add_semantic_types": [],
    "remove_semantic_types": [],
    "custom_imports": [
      "from sklearn.feature_selection import f_classif, f_regression, chi2"
    ],
    "Hyperparams": [
      {
        "name": "score_func",
        "type": "Enumeration",
        "eval": true,
        "init_args": {
          "default": "f_classif",
          "values": [
            "f_classif",
            "f_regression",
            "chi2"
          ],
          "_structural_type": "str",
          "semantic_types": [
            "score_func"
          ],
          "description": ""
        }
      },
      {
        "type": "Bounded",
        "name": "alpha",
        "init_args": {
          "default": 0.05,
          "semantic_types": [
            "alpha"
          ],
          "_structural_type": "float",
          "lower": 0,
          "upper": "None"
        }
      }
    ]
  },
  "Binarizer": {
    "class_name": "sklearn.preprocessing.data.Binarizer",
    "test_data": "numeric",
    "algorithm_types": [
      "ENCODE_BINARY"
    ],
    "primitive_family": "DATA_PREPROCESSING",
    "Hyperparams": [
      {
        "type": "Bounded",
        "name": "threshold",
        "init_args": {
          "default": 0.0,
          "semantic_types": [
            "threshold"
          ],
          "_structural_type": "float",
          "lower": 0.0,
          "upper": "None"
        }
      }
    ]
  },
  "LabelEncoder": {
    "skip": true,
    "class": "sklearn.preprocessing.label.LabelEncoder",
    "algorithm_types": [
      "CATEGORY_ENCODER"
    ],
    "test_template": "preprocessor.unsupervised.test.template",
    "template": "preprocessor.unsupervised.template"
  },
  "mutual_info_classif": {
    "class_name": "sklearn.feature_selection.mutual_info_.mutual_info_classif",
    "skip": true,
    "test_template": "function.test.template",
    "template": "function.template",
    "pipeline_template": "function.pipeline.template",
    "algorithm_types": [
      "MUTUAL_INFORMATION"
    ],
    "iterate_columns": true,
    "primitive_family": "DATA_PREPROCESSING",
    "Hyperparams": [
      {
        "name": "discrete_features",
        "type": "Union",
        "init_args": {
          "default": "auto",
          "semantic_types": [
            "discrete_features"
          ]
        },
        "hyperparams": [
          {
            "name": "auto",
            "type": "Constant",
            "init_args": {
              "_structural_type": "str",
              "default": "auto",
              "description": "If auto, it is assigned to False for dense X and to True for sparse X."
            }
          },
          {
            "type": "UniformBool",
            "name": "bool",
            "init_args": {
              "default": "True",
              "description": "If bool, then determines whether to consider all features discrete or continuous",
              "_structural_type": "bool"
            }
          },
          {
            "name": "array_like",
            "type": "Hyperparameter",
            "init_args": {
              "default": "&escnumpy.array([])",
              "description": "If array, then it should be either a boolean mask with shape (n_features,) or array with indices of discrete features",
              "_structural_type": "ndarray"
            }
          }
        ]
      },
      {
        "type": "Bounded",
        "name": "n_neighbors",
        "init_args": {
          "default": 3,
          "semantic_types": [
            "n_neighbors"
          ],
          "_structural_type": "int",
          "lower": 0,
          "upper": "None"
        }
      }
    ],
    "Constructor_Args": [
      {
        "name": "random_state",
        "type": "int",
        "optional": "true",
        "default": "None",
        "_structural_type": "Union[int, RandomState, None]"
      }
    ],
    "flags": [
      "singleton"
    ]
  },
  "SimpleImputer": {
    "class_name": "sklearn.impute.SimpleImputer",
    "class_name_override": "Imputer",
    "primitive_family": "DATA_CLEANING",
    "test_data": "nan",
    "template": "imputer.template",
    "test_template": "imputer.test.template",
    "algorithm_types": [
      "IMPUTATION"
    ],
    "custom_imports": [
      "from sklearn.impute._base import _get_mask"
    ],
    "Hyperparams": [
      {
        "name": "missing_values",
        "type": "Union",
        "init_args": {
          "default": "float",
          "semantic_types": [
            "missing_values"
          ],
          "description": "The placeholder for the missing values. All occurrences of missing_values will be imputed."
        },
        "hyperparams": [
          {
            "name": "int",
            "type": "Hyperparameter",
            "init_args": {
              "default": 0,
              "_structural_type": "int"
            }
          },
          {
            "name": "float",
            "type": "Hyperparameter",
            "init_args": {
              "default": "&escnumpy.nan",
              "_structural_type": "float"
            }
          }
        ]
      },
      {
        "name": "strategy",
        "type": "Enumeration",
        "init_args": {
          "default": "mean",
          "_structural_type": "str",
          "semantic_types": [
            "strategy"
          ],
          "values": [
            "median",
            "most_frequent",
            "mean",
            "constant"
          ],
          "description": "The imputation strategy."
        }
      },
      {
        "type": "UniformBool",
        "name": "add_indicator",
        "init_args": {
          "default": "False",
          "semantic_types": [
            "add_indicator"
          ],
          "_structural_type": "bool"
        }
      },
      {
        "name": "fill_value",
        "type": "Union",
        "init_args": {
          "default": "none",
          "semantic_types": [
            "fill_value"
          ],
          "description": "When strategy == \u201cconstant\u201d, fill_value is used to replace all occurrences of missing_values. If left to the default, fill_value will be 0 when imputing numerical data and \u201cmissing_value\u201d for strings or object data types."
        },
        "hyperparams": [
          {
            "name": "int",
            "type": "Hyperparameter",
            "init_args": {
              "default": 0,
              "_structural_type": "int"
            }
          },
          {
            "name": "none",
            "type": "Constant",
            "init_args": {
              "default": "None",
              "_structural_type": "None"
            }
          }
        ]
      }
    ],
    "Params": [
      {
        "name": "indicator_",
        "type": "sklearn.base.BaseEstimator"
      }
    ]
  },
  "MissingIndicator": {
    "class_name": "sklearn.impute.MissingIndicator",
    "test_data": "nan",
    "template": "imputer.inverse.template",
    "test_template": "imputer.test.template",
    "algorithm_types": [
      "IMPUTATION"
    ],
    "custom_imports": [
      "from sklearn.impute._base import _get_mask"
    ],
    "primitive_family": "DATA_CLEANING",
    "Hyperparams": [
      {
        "name": "missing_values",
        "type": "Union",
        "init_args": {
          "default": "np.nan",
          "semantic_types": [
            "missing_values"
          ],
          "description": "The placeholder for the missing values. All occurrences of missing_values will be imputed."
        },
        "hyperparams": [
          {
            "name": "int",
            "type": "Hyperparameter",
            "init_args": {
              "default": 0,
              "_structural_type": "int"
            }
          },
          {
            "name": "np.nan",
            "type": "Hyperparameter",
            "init_args": {
              "default": "&escnumpy.nan",
              "_structural_type": "float"
            }
          }
        ]
      },
      {
        "name": "features",
        "type": "Enumeration",
        "init_args": {
          "values": [
            "missing-only",
            "all"
          ],
          "default": "missing-only",
          "_structural_type": "str",
          "semantic_types": [
            "features"
          ],
          "description": "Whether the imputer mask should represent all or a subset of features."
        }
      },
      {
        "type": "Hyperparameter",
        "name": "error_on_new",
        "init_args": {
          "default": "True",
          "semantic_types": [
            "error_on_new"
          ],
          "_structural_type": "bool"
        }
      }
    ],
    "Params": [
      {
        "name": "_n_features",
        "type": "int"
      }
    ]
  },
  "OrdinalEncoder": {
    "class_name": "sklearn.preprocessing._encoders.OrdinalEncoder",
    "test_template": "preprocessor.unsupervised.test.template",
    "template": "preprocessor.unsupervised.template",
    "test_data": "categorical",
    "accepted_semantic_types": [
      "https://metadata.datadrivendiscovery.org/types/CategoricalData"
    ],
    "not_accepted_semantic_types": [
      "https://metadata.datadrivendiscovery.org/types/Target"
    ],
    "check_attribute_semantic_type": false,
    "contain_any_accepted_semantic_types": true,
    "algorithm_types": [
      "CATEGORY_ENCODER"
    ],
    "accepted_structural_types": [
      "int",
      "float",
      "numpy.integer",
      "numpy.float64",
      "str"
    ],
    "primitive_family": "DATA_TRANSFORMATION",
    "Hyperparams": [
      {
        "name": "categories",
        "type": "Constant",
        "init_args": {
          "default": "auto",
          "_structural_type": "str",
          "semantic_types": [
            "categories"
          ],
          "description": "Categories (unique values) per feature. \u2018auto\u2019 determines categories automatically from the training data."
        }
      }
    ],
    "Params": [
      {
        "name": "_categories",
        "type": "str"
      },
      {
        "name": "categories_",
        "type": "Optional[Sequence[Any]]"
      }
    ]
  },
  "QuantileTransformer": {
    "class_name": "sklearn.preprocessing.data.QuantileTransformer",
    "algorithm_types": [
      "DATA_CONVERSION"
    ],
    "primitive_family": "DATA_PREPROCESSING",
    "test_template": "preprocessor.unsupervised.test.template",
    "template": "preprocessor.unsupervised.template",
    "test_data": "numeric",
    "Hyperparams": [
      {
        "type": "UniformInt",
        "name": "n_quantiles",
        "init_args": {
          "default": 1000,
          "semantic_types": [
            "n_quantiles"
          ],
          "_structural_type": "int",
          "lower": 100,
          "upper": 10000
        }
      },
      {
        "type": "Enumeration",
        "name": "output_distribution",
        "init_args": {
          "default": "uniform",
          "values": [
            "uniform",
            "normal"
          ],
          "semantic_types": [
            "output_distribution"
          ],
          "_structural_type": "str"
        }
      },
      {
        "type": "UniformBool",
        "name": "ignore_implicit_zeros",
        "init_args": {
          "default": "False",
          "semantic_types": [
            "ignore_implicit_zeros"
          ],
          "_structural_type": "bool"
        }
      },
      {
        "type": "Bounded",
        "name": "subsample",
        "init_args": {
          "default": 1e5,
          "semantic_types": [
            "subsample"
          ],
          "_structural_type": "float",
          "lower": 1e3,
          "upper": 1e5
        }
      }
    ]
  },
  "SparseRandomProjection": {
    "class_name": "sklearn.random_projection.SparseRandomProjection",
    "algorithm_types": [
      "RANDOM_PROJECTION"
    ],
    "template": "preprocessor.unsupervised.decomposition.template",
    "test_template": "preprocessor.unsupervised.decomposition.test.template",
    "test_data": "sparse",
    "primitive_family": "DATA_TRANSFORMATION",
    "Hyperparams": [
      {
        "name": "n_components",
        "type": "Union",
        "init_args": {
          "default": "auto",
          "semantic_types": [
            "n_components"
          ],
          "description": "Dimensionality of the target projection space."
        },
        "hyperparams": [
          {
            "name": "int",
            "type": "Bounded",
            "init_args": {
              "lower": 0,
              "upper": "None",
              "default": 100,
              "_structural_type": "int",
              "description": "Number of components to keep."
            }
          },
          {
            "name": "auto",
            "type": "Constant",
            "init_args": {
              "_structural_type": "str",
              "default": "auto"
            }
          }
        ]
      },
      {
        "name": "density",
        "type": "Union",
        "init_args": {
          "default": "auto",
          "semantic_types": [
            "density"
          ],
          "description": ""
        },
        "hyperparams": [
          {
            "name": "float",
            "type": "Uniform",
            "init_args": {
              "lower": 0,
              "upper": 1,
              "default": 0.3,
              "_structural_type": "int",
              "description": "Number of components to keep."
            }
          },
          {
            "name": "auto",
            "type": "Constant",
            "init_args": {
              "_structural_type": "str",
              "default": "auto"
            }
          }
        ]
      },
      {
        "name": "eps",
        "type": "Bounded",
        "init_args": {
          "default": 0.1,
          "lower": 0,
          "upper": 1,
          "_structural_type": "float",
          "semantic_types": [
            "eps"
          ],
          "description": "Parameter to control the quality of the embedding"
        }
      },
      {
        "name": "dense_output",
        "type": "Hyperparameter",
        "init_args": {
          "default": "False",
          "_structural_type": "bool",
          "semantic_types": [
            "dense_output"
          ],
          "description": "ensure that the output of the random projection is a dense numpy array even if the input and random projection matrix are both sparse"
        }
      }
    ],
    "Params": [
      {
        "name": "components_",
        "type": "Union[ndarray, sparse.spmatrix]"
      }
    ]
  },
  "GaussianRandomProjection": {
    "class_name": "sklearn.random_projection.GaussianRandomProjection",
    "algorithm_types": [
      "RANDOM_PROJECTION"
    ],
    "template": "preprocessor.unsupervised.decomposition.template",
    "test_template": "preprocessor.unsupervised.decomposition.test.template",
    "test_data": "sparse",
    "primitive_family": "DATA_TRANSFORMATION",
    "Hyperparams": [
      {
        "name": "n_components",
        "type": "Union",
        "init_args": {
          "default": "auto",
          "semantic_types": [
            "n_components"
          ],
          "description": "Dimensionality of the target projection space."
        },
        "hyperparams": [
          {
            "name": "int",
            "type": "Bounded",
            "init_args": {
              "lower": 0,
              "upper": "None",
              "default": 100,
              "_structural_type": "int",
              "description": "Number of components to keep."
            }
          },
          {
            "name": "auto",
            "type": "Constant",
            "init_args": {
              "_structural_type": "str",
              "default": "auto"
            }
          }
        ]
      },
      {
        "name": "eps",
        "type": "Bounded",
        "init_args": {
          "default": 0.1,
          "lower": 0,
          "upper": 1,
          "_structural_type": "float",
          "semantic_types": [
            "eps"
          ],
          "description": "Parameter to control the quality of the embedding"
        }
      }
    ],
    "Params": [
      {
        "name": "components_",
        "type": "Union[ndarray, sparse.spmatrix]"
      }
    ]
  },
  "mutual_info_regression": {
    "class_name": "sklearn.feature_selection.mutual_info_.mutual_info_regression",
    "skip": true,
    "test_template": "function.test.template",
    "template": "function.template",
    "pipeline_template": "function.pipeline.template",
    "algorithm_types": [
      "MUTUAL_INFORMATION"
    ],
    "iterate_columns": true,
    "primitive_family": "DATA_PREPROCESSING",
    "Hyperparams": [
      {
        "name": "discrete_features",
        "type": "Union",
        "init_args": {
          "default": "auto",
          "semantic_types": [
            "discrete_features"
          ]
        },
        "hyperparams": [
          {
            "name": "auto",
            "type": "Constant",
            "init_args": {
              "_structural_type": "str",
              "default": "auto",
              "description": "If auto, it is assigned to False for dense X and to True for sparse X."
            }
          },
          {
            "type": "UniformBool",
            "name": "bool",
            "init_args": {
              "default": "True",
              "description": "If bool, then determines whether to consider all features discrete or continuous",
              "_structural_type": "bool"
            }
          },
          {
            "name": "array_like",
            "type": "Hyperparameter",
            "init_args": {
              "default": "&escnumpy.array([])",
              "description": "If array, then it should be either a boolean mask with shape (n_features,) or array with indices of discrete features",
              "_structural_type": "ndarray"
            }
          }
        ]
      },
      {
        "type": "Bounded",
        "name": "n_neighbors",
        "init_args": {
          "default": 3,
          "semantic_types": [
            "n_neighbors"
          ],
          "_structural_type": "int",
          "lower": 0,
          "upper": "None"
        }
      }
    ],
    "flags": [
      "singleton"
    ]
  }
}